[I 07:12:01.179 NotebookApp] Writing notebook server cookie secret to /run/user/1000/jupyter/notebook_cookie_secret
[I 07:12:02.394 NotebookApp] Serving notebooks from local directory: /home/vagrant/gitLab_obj/obj_detection/Tika
[I 07:12:02.394 NotebookApp] 0 active kernels
[I 07:12:02.394 NotebookApp] The Jupyter Notebook is running at:
[I 07:12:02.394 NotebookApp] http://192.168.92.11:8080/?token=99b1edc0879d3b20830f6dd61a5c9dff3bbbf9c423285746
[I 07:12:02.394 NotebookApp] Use Control-C to stop this server and shut down all kernels (twice to skip confirmation).
[W 07:12:02.394 NotebookApp] No web browser found: could not locate runnable browser.
[C 07:12:02.395 NotebookApp] 
    
    Copy/paste this URL into your browser when you connect for the first time,
    to login with a token:
        http://192.168.92.11:8080/?token=99b1edc0879d3b20830f6dd61a5c9dff3bbbf9c423285746
[I 07:12:29.553 NotebookApp] 302 GET /?token=99b1edc0879d3b20830f6dd61a5c9dff3bbbf9c423285746 (192.168.92.1) 2.63ms
[I 07:12:53.723 NotebookApp] Kernel started: 7c4cd250-77d0-4966-adc8-412b3560661f
[I 07:12:54.797 NotebookApp] Adapting to protocol v5.1 for kernel 7c4cd250-77d0-4966-adc8-412b3560661f
[I 07:22:54.030 NotebookApp] Saving file at /folder_for_tika/offerte_ENI_Altro.ipynb
[I 07:25:53.339 NotebookApp] Kernel started: de5481bd-9f8a-410f-acca-e7c03e225a3e
[I 07:25:54.710 NotebookApp] Adapting to protocol v5.1 for kernel de5481bd-9f8a-410f-acca-e7c03e225a3e
libpng warning: iCCP: profile 'default_rgb.icc': 0h: PCS illuminant is not D50
[I 07:28:54.254 NotebookApp] Saving file at /folder_for_tika/offerte_ENI_Altro.ipynb
[I 07:29:35.446 NotebookApp] Kernel interrupted: 7c4cd250-77d0-4966-adc8-412b3560661f
[I 07:30:54.223 NotebookApp] Saving file at /folder_for_tika/offerte_ENI_Altro.ipynb
[I 07:40:54.611 NotebookApp] Saving file at /folder_for_tika/offerte_ENI_Altro.ipynb
libpng warning: iCCP: profile 'default_rgb.icc': 0h: PCS illuminant is not D50
[I 07:58:55.292 NotebookApp] Saving file at /folder_for_tika/offerte_ENI_Altro.ipynb
[I 07:58:57.646 NotebookApp] Kernel interrupted: de5481bd-9f8a-410f-acca-e7c03e225a3e
[I 07:59:14.075 NotebookApp] Kernel interrupted: de5481bd-9f8a-410f-acca-e7c03e225a3e
[I 07:59:54.369 NotebookApp] Saving file at /folder_for_tika/offerte_eni_template.ipynb
[I 08:03:54.526 NotebookApp] Saving file at /folder_for_tika/offerte_eni_template.ipynb
[I 08:06:55.309 NotebookApp] Saving file at /folder_for_tika/offerte_ENI_Altro.ipynb
[I 08:08:55.375 NotebookApp] Saving file at /folder_for_tika/offerte_ENI_Altro.ipynb
[I 08:10:55.428 NotebookApp] Saving file at /folder_for_tika/offerte_ENI_Altro.ipynb
[I 08:12:55.481 NotebookApp] Saving file at /folder_for_tika/offerte_ENI_Altro.ipynb
[I 08:14:55.825 NotebookApp] Saving file at /folder_for_tika/offerte_ENI_Altro.ipynb
[I 08:16:51.001 NotebookApp] Starting buffering for 7c4cd250-77d0-4966-adc8-412b3560661f:7c4b951823254133986173dc854956c5
[I 08:16:51.634 NotebookApp] Kernel restarted: 7c4cd250-77d0-4966-adc8-412b3560661f
[I 08:16:52.754 NotebookApp] Adapting to protocol v5.1 for kernel 7c4cd250-77d0-4966-adc8-412b3560661f
[I 08:16:52.756 NotebookApp] Restoring connection for 7c4cd250-77d0-4966-adc8-412b3560661f:7c4b951823254133986173dc854956c5
[I 08:16:52.756 NotebookApp] Replaying 6 buffered messages
[I 08:16:55.615 NotebookApp] Saving file at /folder_for_tika/offerte_ENI_Altro.ipynb
[I 08:18:55.675 NotebookApp] Saving file at /folder_for_tika/offerte_ENI_Altro.ipynb
[I 08:20:55.735 NotebookApp] Saving file at /folder_for_tika/offerte_ENI_Altro.ipynb
[I 08:22:55.732 NotebookApp] Saving file at /folder_for_tika/offerte_ENI_Altro.ipynb
[I 08:24:55.909 NotebookApp] Saving file at /folder_for_tika/offerte_ENI_Altro.ipynb
[I 08:26:55.723 NotebookApp] Saving file at /folder_for_tika/offerte_ENI_Altro.ipynb
[I 08:28:55.939 NotebookApp] Saving file at /folder_for_tika/offerte_ENI_Altro.ipynb
[I 08:30:55.936 NotebookApp] Saving file at /folder_for_tika/offerte_ENI_Altro.ipynb
[I 08:32:55.735 NotebookApp] Saving file at /folder_for_tika/offerte_ENI_Altro.ipynb
[I 08:34:55.919 NotebookApp] Saving file at /folder_for_tika/offerte_ENI_Altro.ipynb
[I 08:35:55.919 NotebookApp] Saving file at /folder_for_tika/offerte_eni_template.ipynb
[I 08:37:55.951 NotebookApp] Saving file at /folder_for_tika/offerte_eni_template.ipynb
[I 08:38:55.940 NotebookApp] Saving file at /folder_for_tika/offerte_ENI_Altro.ipynb
[I 08:39:55.161 NotebookApp] Saving file at /folder_for_tika/offerte_eni_template.ipynb
libpng warning: iCCP: profile 'default_rgb.icc': 0h: PCS illuminant is not D50
[I 08:41:54.985 NotebookApp] Saving file at /folder_for_tika/offerte_eni_template.ipynb
[I 08:43:55.028 NotebookApp] Saving file at /folder_for_tika/offerte_eni_template.ipynb
[I 08:49:55.040 NotebookApp] Saving file at /folder_for_tika/offerte_eni_template.ipynb
[I 08:51:55.075 NotebookApp] Saving file at /folder_for_tika/offerte_eni_template.ipynb
[I 08:53:55.001 NotebookApp] Saving file at /folder_for_tika/offerte_eni_template.ipynb
[I 08:55:55.005 NotebookApp] Saving file at /folder_for_tika/offerte_eni_template.ipynb
[I 08:57:55.013 NotebookApp] Saving file at /folder_for_tika/offerte_eni_template.ipynb
[I 08:59:55.027 NotebookApp] Saving file at /folder_for_tika/offerte_eni_template.ipynb
[I 09:01:55.019 NotebookApp] Saving file at /folder_for_tika/offerte_eni_template.ipynb
[I 09:03:54.980 NotebookApp] Saving file at /folder_for_tika/offerte_eni_template.ipynb
[I 09:05:54.981 NotebookApp] Saving file at /folder_for_tika/offerte_eni_template.ipynb
[I 09:07:55.019 NotebookApp] Saving file at /folder_for_tika/offerte_eni_template.ipynb
[I 09:09:55.030 NotebookApp] Saving file at /folder_for_tika/offerte_eni_template.ipynb
[I 09:11:55.031 NotebookApp] Saving file at /folder_for_tika/offerte_eni_template.ipynb
[I 09:13:55.029 NotebookApp] Saving file at /folder_for_tika/offerte_eni_template.ipynb
[I 09:15:55.006 NotebookApp] Saving file at /folder_for_tika/offerte_eni_template.ipynb
[I 09:17:54.987 NotebookApp] Saving file at /folder_for_tika/offerte_eni_template.ipynb
[I 09:19:55.011 NotebookApp] Saving file at /folder_for_tika/offerte_eni_template.ipynb
[I 09:20:55.935 NotebookApp] Saving file at /folder_for_tika/offerte_ENI_Altro.ipynb
[I 09:21:54.989 NotebookApp] Saving file at /folder_for_tika/offerte_eni_template.ipynb
[I 09:23:55.019 NotebookApp] Saving file at /folder_for_tika/offerte_eni_template.ipynb
[I 09:25:54.989 NotebookApp] Saving file at /folder_for_tika/offerte_eni_template.ipynb
[I 09:27:55.000 NotebookApp] Saving file at /folder_for_tika/offerte_eni_template.ipynb
[I 09:29:55.013 NotebookApp] Saving file at /folder_for_tika/offerte_eni_template.ipynb
[I 09:31:55.008 NotebookApp] Saving file at /folder_for_tika/offerte_eni_template.ipynb
[I 09:37:55.972 NotebookApp] Saving file at /folder_for_tika/offerte_eni_template.ipynb
[I 09:38:55.935 NotebookApp] Saving file at /folder_for_tika/offerte_ENI_Altro.ipynb
[I 09:39:55.943 NotebookApp] Saving file at /folder_for_tika/offerte_eni_template.ipynb
[I 09:47:54.987 NotebookApp] Saving file at /folder_for_tika/offerte_eni_template.ipynb
[I 09:51:55.000 NotebookApp] Saving file at /folder_for_tika/offerte_eni_template.ipynb
[I 09:53:55.030 NotebookApp] Saving file at /folder_for_tika/offerte_eni_template.ipynb
[I 09:55:55.092 NotebookApp] Saving file at /folder_for_tika/offerte_eni_template.ipynb
[I 09:57:55.021 NotebookApp] Saving file at /folder_for_tika/offerte_eni_template.ipynb
[I 09:58:06.953 NotebookApp] Saving file at /folder_for_tika/offerte_eni_template.ipynb
[I 09:58:49.950 NotebookApp] Creating new notebook in /folder_for_tika
[I 09:58:50.788 NotebookApp] Kernel started: 8d852893-f9d4-45fc-b8d3-8f9068d1c0fa
[I 09:58:51.884 NotebookApp] Adapting to protocol v5.1 for kernel 8d852893-f9d4-45fc-b8d3-8f9068d1c0fa
[I 09:59:00.031 NotebookApp] Starting buffering for 8d852893-f9d4-45fc-b8d3-8f9068d1c0fa:a946a5374c1341de8f0c7ed16acb3490
[I 09:59:05.972 NotebookApp] Kernel shutdown: 8d852893-f9d4-45fc-b8d3-8f9068d1c0fa
[W 09:59:05.981 NotebookApp] delete /folder_for_tika/Untitled.ipynb
[I 09:59:10.813 NotebookApp] Creating new file in /folder_for_tika
[I 09:59:51.807 NotebookApp] Saving file at /folder_for_tika/constants_template.py
[I 10:01:00.649 NotebookApp] Saving file at /folder_for_tika/offerte_eni_template.ipynb
[I 10:01:12.297 NotebookApp] Saving file at /folder_for_tika/constants_template.py
[I 10:01:56.847 NotebookApp] Saving file at /folder_for_tika/offerte_eni_template.ipynb
[I 10:03:04.984 NotebookApp] Saving file at /folder_for_tika/offerte_eni_template.ipynb
[I 10:03:52.584 NotebookApp] Saving file at /folder_for_tika/offerte_eni_template.ipynb
[I 10:25:56.844 NotebookApp] Saving file at /folder_for_tika/offerte_eni_template.ipynb
[I 10:27:56.843 NotebookApp] Saving file at /folder_for_tika/offerte_eni_template.ipynb
[I 10:31:56.854 NotebookApp] Saving file at /folder_for_tika/offerte_eni_template.ipynb
[I 10:33:56.839 NotebookApp] Saving file at /folder_for_tika/offerte_eni_template.ipynb
[I 10:35:56.839 NotebookApp] Saving file at /folder_for_tika/offerte_eni_template.ipynb
[I 10:37:56.843 NotebookApp] Saving file at /folder_for_tika/offerte_eni_template.ipynb
[I 10:39:56.840 NotebookApp] Saving file at /folder_for_tika/offerte_eni_template.ipynb
[I 10:41:56.837 NotebookApp] Saving file at /folder_for_tika/offerte_eni_template.ipynb
[I 10:43:56.918 NotebookApp] Saving file at /folder_for_tika/offerte_eni_template.ipynb
[I 10:45:56.839 NotebookApp] Saving file at /folder_for_tika/offerte_eni_template.ipynb
[I 10:47:56.928 NotebookApp] Saving file at /folder_for_tika/offerte_eni_template.ipynb
[I 10:49:56.842 NotebookApp] Saving file at /folder_for_tika/offerte_eni_template.ipynb
[I 10:51:56.877 NotebookApp] Saving file at /folder_for_tika/offerte_eni_template.ipynb
[I 10:53:56.912 NotebookApp] Saving file at /folder_for_tika/offerte_eni_template.ipynb
[I 10:55:56.868 NotebookApp] Saving file at /folder_for_tika/offerte_eni_template.ipynb
[I 10:57:56.844 NotebookApp] Saving file at /folder_for_tika/offerte_eni_template.ipynb
[I 10:59:56.847 NotebookApp] Saving file at /folder_for_tika/offerte_eni_template.ipynb
[I 11:01:56.856 NotebookApp] Saving file at /folder_for_tika/offerte_eni_template.ipynb
[I 11:03:56.915 NotebookApp] Saving file at /folder_for_tika/offerte_eni_template.ipynb
[I 11:05:56.912 NotebookApp] Saving file at /folder_for_tika/offerte_eni_template.ipynb
[I 11:07:56.858 NotebookApp] Saving file at /folder_for_tika/offerte_eni_template.ipynb
[I 11:09:56.850 NotebookApp] Saving file at /folder_for_tika/offerte_eni_template.ipynb
[I 11:11:56.864 NotebookApp] Saving file at /folder_for_tika/offerte_eni_template.ipynb
[I 11:17:56.844 NotebookApp] Saving file at /folder_for_tika/offerte_eni_template.ipynb
[I 11:19:56.841 NotebookApp] Saving file at /folder_for_tika/offerte_eni_template.ipynb
[I 11:21:56.846 NotebookApp] Saving file at /folder_for_tika/offerte_eni_template.ipynb
[I 11:23:56.838 NotebookApp] Saving file at /folder_for_tika/offerte_eni_template.ipynb
[I 11:25:56.926 NotebookApp] Saving file at /folder_for_tika/offerte_eni_template.ipynb
[I 11:27:56.839 NotebookApp] Saving file at /folder_for_tika/offerte_eni_template.ipynb
[I 11:29:56.936 NotebookApp] Saving file at /folder_for_tika/offerte_eni_template.ipynb
[I 11:31:56.919 NotebookApp] Saving file at /folder_for_tika/offerte_eni_template.ipynb
[I 11:33:56.839 NotebookApp] Saving file at /folder_for_tika/offerte_eni_template.ipynb
[I 11:35:56.913 NotebookApp] Saving file at /folder_for_tika/offerte_eni_template.ipynb
[I 11:37:56.861 NotebookApp] Saving file at /folder_for_tika/offerte_eni_template.ipynb
[I 11:39:57.119 NotebookApp] Saving file at /folder_for_tika/offerte_eni_template.ipynb
[I 11:41:56.850 NotebookApp] Saving file at /folder_for_tika/offerte_eni_template.ipynb
[I 11:43:56.870 NotebookApp] Saving file at /folder_for_tika/offerte_eni_template.ipynb
[I 11:45:56.917 NotebookApp] Saving file at /folder_for_tika/offerte_eni_template.ipynb
[I 11:47:56.839 NotebookApp] Saving file at /folder_for_tika/offerte_eni_template.ipynb
[I 11:49:56.839 NotebookApp] Saving file at /folder_for_tika/offerte_eni_template.ipynb
[I 11:50:56.528 NotebookApp] Saving file at /folder_for_tika/offerte_eni_template.ipynb
[I 11:51:56.940 NotebookApp] Saving file at /folder_for_tika/offerte_eni_template.ipynb
[I 11:52:11.862 NotebookApp] Saving file at /folder_for_tika/constants_template.py
[I 11:52:19.903 NotebookApp] Saving file at /folder_for_tika/offerte_eni_template.ipynb
[I 12:47:56.922 NotebookApp] Saving file at /folder_for_tika/offerte_eni_template.ipynb
[I 12:49:56.850 NotebookApp] Saving file at /folder_for_tika/offerte_eni_template.ipynb
[I 12:51:56.843 NotebookApp] Saving file at /folder_for_tika/offerte_eni_template.ipynb
[I 12:53:56.912 NotebookApp] Saving file at /folder_for_tika/offerte_eni_template.ipynb
[I 12:55:56.838 NotebookApp] Saving file at /folder_for_tika/offerte_eni_template.ipynb
[I 12:57:56.839 NotebookApp] Saving file at /folder_for_tika/offerte_eni_template.ipynb
[I 12:59:56.910 NotebookApp] Saving file at /folder_for_tika/offerte_eni_template.ipynb
[I 13:01:56.842 NotebookApp] Saving file at /folder_for_tika/offerte_eni_template.ipynb
[I 13:03:56.842 NotebookApp] Saving file at /folder_for_tika/offerte_eni_template.ipynb
[I 13:05:03.026 NotebookApp] Saving file at /folder_for_tika/offerte_eni_template.ipynb
[I 13:05:56.846 NotebookApp] Saving file at /folder_for_tika/offerte_eni_template.ipynb
[I 13:07:56.867 NotebookApp] Saving file at /folder_for_tika/offerte_eni_template.ipynb
[I 13:09:56.872 NotebookApp] Saving file at /folder_for_tika/offerte_eni_template.ipynb
[I 13:11:39.242 NotebookApp] Saving file at /folder_for_tika/offerte_eni_template.ipynb
[I 13:13:56.838 NotebookApp] Saving file at /folder_for_tika/offerte_eni_template.ipynb
[I 13:15:56.924 NotebookApp] Saving file at /folder_for_tika/offerte_eni_template.ipynb
[I 13:16:11.905 NotebookApp] Saving file at /folder_for_tika/constants_template.py
[I 13:16:15.624 NotebookApp] Saving file at /folder_for_tika/offerte_eni_template.ipynb
[I 13:17:56.847 NotebookApp] Saving file at /folder_for_tika/offerte_eni_template.ipynb
[I 13:19:56.897 NotebookApp] Saving file at /folder_for_tika/offerte_eni_template.ipynb
[I 13:43:49.271 NotebookApp] Saving file at /folder_for_tika/constants_template.py
[I 13:43:57.059 NotebookApp] Saving file at /folder_for_tika/offerte_eni_template.ipynb
[I 13:45:46.333 NotebookApp] Starting buffering for de5481bd-9f8a-410f-acca-e7c03e225a3e:59c81110719045e3a4e2242d47d768bd
[I 13:45:47.060 NotebookApp] Kernel restarted: de5481bd-9f8a-410f-acca-e7c03e225a3e
[I 13:45:47.901 NotebookApp] Adapting to protocol v5.1 for kernel de5481bd-9f8a-410f-acca-e7c03e225a3e
[I 13:45:47.904 NotebookApp] Restoring connection for de5481bd-9f8a-410f-acca-e7c03e225a3e:59c81110719045e3a4e2242d47d768bd
[I 13:45:47.904 NotebookApp] Replaying 6 buffered messages
[I 13:45:56.852 NotebookApp] Saving file at /folder_for_tika/offerte_eni_template.ipynb
[I 13:45:58.765 NotebookApp] Starting buffering for de5481bd-9f8a-410f-acca-e7c03e225a3e:59c81110719045e3a4e2242d47d768bd
[I 13:45:59.384 NotebookApp] Kernel restarted: de5481bd-9f8a-410f-acca-e7c03e225a3e
[I 13:46:00.114 NotebookApp] Adapting to protocol v5.1 for kernel de5481bd-9f8a-410f-acca-e7c03e225a3e
[I 13:46:00.116 NotebookApp] Restoring connection for de5481bd-9f8a-410f-acca-e7c03e225a3e:59c81110719045e3a4e2242d47d768bd
[I 13:46:00.117 NotebookApp] Replaying 6 buffered messages
libpng warning: iCCP: profile 'default_rgb.icc': 0h: PCS illuminant is not D50
[I 13:47:56.844 NotebookApp] Saving file at /folder_for_tika/offerte_eni_template.ipynb
[I 13:49:56.865 NotebookApp] Saving file at /folder_for_tika/offerte_eni_template.ipynb
libpng warning: iCCP: profile 'default_rgb.icc': 0h: PCS illuminant is not D50
[I 13:53:56.868 NotebookApp] Saving file at /folder_for_tika/offerte_eni_template.ipynb
[I 13:55:56.851 NotebookApp] Saving file at /folder_for_tika/offerte_eni_template.ipynb
[I 13:57:41.279 NotebookApp] Saving file at /folder_for_tika/offerte_eni_template.ipynb
[I 13:57:45.724 NotebookApp] Saving file at /folder_for_tika/constants_template.py
